[
 {"id":"0", "category_id":"LANGUAGE", "lang":"en", "question":"\"Entre nous\" means __________.\"", "answer":0, "answers":["Between ourselves"], "source":""},
{"id":"1", "category_id":"LANGUAGE", "lang":"en", "question":"\"faux pas\" means ___________.\"", "answer":0, "answers":["Mistake"], "source":""},
{"id":"2", "category_id":"LANGUAGE", "lang":"en", "question":"An adjective meaning 'pertaining to the sun.'", "answer":0, "answers":["Solar"], "source":""},
{"id":"3", "category_id":"LANGUAGE", "lang":"en", "question":"From what Irish words is 'Dublin' derived?", "answer":0, "answers":["Dubh linn"], "source":""},
{"id":"4", "category_id":"LANGUAGE", "lang":"en", "question":"From what language is the term 'finito'?", "answer":0, "answers":["Italian"], "source":""},
{"id":"5", "category_id":"LANGUAGE", "lang":"en", "question":"From which language does the term 'Mayday' come?", "answer":0, "answers":["French"], "source":""},
{"id":"6", "category_id":"LANGUAGE", "lang":"en", "question":"How do you say \"I Love You\" in German?\"", "answer":0, "answers":["Ich liebe Dich"], "source":""},
{"id":"7", "category_id":"LANGUAGE", "lang":"en", "question":"Many Meanings: Fuel, vapor, flattulence, helium.  What is it?", "answer":0, "answers":["Gas"], "source":""},
{"id":"8", "category_id":"LANGUAGE", "lang":"en", "question":"Mardi Gras is French for ___________.", "answer":0, "answers":["Fat tuesday"], "source":""},
{"id":"9", "category_id":"LANGUAGE", "lang":"en", "question":"Merging the words 'melt' and 'weld' created which word?", "answer":0, "answers":["Meld"], "source":""},
{"id":"10", "category_id":"LANGUAGE", "lang":"en", "question":"Multiple Meanings:  Drinking utensils or sight-enhancers.", "answer":0, "answers":["Glasses"], "source":""},
{"id":"11", "category_id":"LANGUAGE", "lang":"en", "question":"Multiple Meanings:  Slamming your hands together quickly, or a venereal disease.", "answer":0, "answers":["Clap"], "source":""},
{"id":"12", "category_id":"LANGUAGE", "lang":"en", "question":"Name the soda that is often confused with a drug.", "answer":0, "answers":["Coke"], "source":""},
{"id":"13", "category_id":"LANGUAGE", "lang":"en", "question":"Other than Germany, whose official language is German?", "answer":0, "answers":["Austria"], "source":""},
{"id":"14", "category_id":"LANGUAGE", "lang":"en", "question":"Subject, verb and object are parts of a _________.", "answer":0, "answers":["Sentence"], "source":""},
{"id":"15", "category_id":"LANGUAGE", "lang":"en", "question":"The name Australia is derived from the Latin word \"australis\" which means _______.\"", "answer":0, "answers":["Southern"], "source":""},
{"id":"16", "category_id":"LANGUAGE", "lang":"en", "question":"The name for this semi_precious stone comes from the Latin for \"sea water\"", "answer":0, "answers":["Aquamarine"], "source":""},
{"id":"17", "category_id":"LANGUAGE", "lang":"en", "question":"The Scots call it 'shinty' - what do Canadians and Americans call it?", "answer":0, "answers":["Hockey"], "source":""},
{"id":"18", "category_id":"LANGUAGE", "lang":"en", "question":"The word rodent comes from the italian 'rodere', which means?", "answer":0, "answers":["Gnaw"], "source":""},
{"id":"19", "category_id":"LANGUAGE", "lang":"en", "question":"This animal is found at the beginning of an (English) encyclopedia", "answer":0, "answers":["Aardvark"], "source":""},
{"id":"20", "category_id":"LANGUAGE", "lang":"en", "question":"What city's name is derived from the words 'dubh linn'?", "answer":0, "answers":["Dublin"], "source":""},
{"id":"21", "category_id":"LANGUAGE", "lang":"en", "question":"What do the initials 'VCR' stand for?", "answer":0, "answers":["Video Cassette Recorder"], "source":""},
{"id":"22", "category_id":"LANGUAGE", "lang":"en", "question":"What does 'A&W' (of root beer fame) stand for ?", "answer":0, "answers":["Allen & Wright"], "source":""},
{"id":"23", "category_id":"LANGUAGE", "lang":"en", "question":"What does 'alma mater' mean in English?", "answer":0, "answers":["Bountiful mother"], "source":""},
{"id":"24", "category_id":"LANGUAGE", "lang":"en", "question":"What does 'AOL' stand for?", "answer":0, "answers":["America Online"], "source":""},
{"id":"25", "category_id":"LANGUAGE", "lang":"en", "question":"What does 'majuba' mean?", "answer":0, "answers":["Place of rock pigeons"], "source":""},
{"id":"26", "category_id":"LANGUAGE", "lang":"en", "question":"What does 'shogun' mean in English?", "answer":0, "answers":["Military governor"], "source":""},
{"id":"27", "category_id":"LANGUAGE", "lang":"en", "question":"What does \"c'est la vie\" mean?\"", "answer":0, "answers":["That's life"], "source":""},
{"id":"28", "category_id":"LANGUAGE", "lang":"en", "question":"What does N.A.S.A stand for?", "answer":0, "answers":["National Aeronautics and Space Administration"], "source":""},
{"id":"29", "category_id":"LANGUAGE", "lang":"en", "question":"What does S.O.S. stand for?", "answer":0, "answers":["Save Our Souls"], "source":""},
{"id":"30", "category_id":"LANGUAGE", "lang":"en", "question":"What does SOS stand for", "answer":0, "answers":["Save Our Souls"], "source":""},
{"id":"31", "category_id":"LANGUAGE", "lang":"en", "question":"What does the abbreviation N/A mean?", "answer":0, "answers":["Not applicable"], "source":""},
{"id":"32", "category_id":"LANGUAGE", "lang":"en", "question":"What does the acronym 'scuba' mean?", "answer":0, "answers":["Self Contained Underwater Breathing Apparatus"], "source":""},
{"id":"33", "category_id":"LANGUAGE", "lang":"en", "question":"What does the Greek root word 'chrom' mean?", "answer":0, "answers":["Color"], "source":""},
{"id":"34", "category_id":"LANGUAGE", "lang":"en", "question":"What does the Irish 'dubh linn' mean?", "answer":0, "answers":["Black pool"], "source":""},
{"id":"35", "category_id":"LANGUAGE", "lang":"en", "question":"What does the word 'karate' translate to in English?", "answer":0, "answers":["Open hand"], "source":""},
{"id":"36", "category_id":"LANGUAGE", "lang":"en", "question":"What is 'blackpool' in Irish?", "answer":0, "answers":["Dubh linn"], "source":""},
{"id":"37", "category_id":"LANGUAGE", "lang":"en", "question":"What is 'bountiful mother' in Latin?", "answer":0, "answers":["Alma mater"], "source":""},
{"id":"38", "category_id":"LANGUAGE", "lang":"en", "question":"What is 'military governor' in Japanese?", "answer":0, "answers":["Shogun"], "source":""},
{"id":"39", "category_id":"LANGUAGE", "lang":"en", "question":"What is the English word for 'fiesta'?", "answer":0, "answers":["Festival"], "source":""},
{"id":"40", "category_id":"LANGUAGE", "lang":"en", "question":"What is the first letter in the Greek alphabet?", "answer":0, "answers":["Alpha"], "source":""},
{"id":"41", "category_id":"LANGUAGE", "lang":"en", "question":"What is the Israeli 'knesset'?", "answer":0, "answers":["Parliament"], "source":""},
{"id":"42", "category_id":"LANGUAGE", "lang":"en", "question":"What is the language of Hungary?", "answer":0, "answers":["Magyar"], "source":""},
{"id":"43", "category_id":"LANGUAGE", "lang":"en", "question":"What is the last letter in the Greek alphabet?", "answer":0, "answers":["Omega"], "source":""},
{"id":"44", "category_id":"LANGUAGE", "lang":"en", "question":"What is the literal meaning of 'pince-nez'?", "answer":0, "answers":["Pinch nose"], "source":""},
{"id":"45", "category_id":"LANGUAGE", "lang":"en", "question":"What is the meaning of the Mercedes Benz motto 'Das beste oder nichts'?", "answer":0, "answers":["The best or nothing"], "source":""},
{"id":"46", "category_id":"LANGUAGE", "lang":"en", "question":"What is the official language of Austria?", "answer":0, "answers":["German"], "source":""},
{"id":"47", "category_id":"LANGUAGE", "lang":"en", "question":"What is the official language of Senegal?", "answer":0, "answers":["French"], "source":""},
{"id":"48", "category_id":"LANGUAGE", "lang":"en", "question":"What is the Old English word for 'sneeze'?", "answer":0, "answers":["Fneasan"], "source":""},
{"id":"49", "category_id":"LANGUAGE", "lang":"en", "question":"What is the only English word formed by the first three letters of the alphabet?", "answer":0, "answers":["Cab"], "source":""},
{"id":"50", "category_id":"LANGUAGE", "lang":"en", "question":"What is the Spanish word for 'festival'?", "answer":0, "answers":["Fiesta"], "source":""},
{"id":"51", "category_id":"LANGUAGE", "lang":"en", "question":"What ONE word fits ____hood; ____hole; ____date.\"", "answer":0, "answers":["Man"], "source":""},
{"id":"52", "category_id":"LANGUAGE", "lang":"en", "question":"What ONE word fits ____stream; ____hill; _____pour.\"", "answer":0, "answers":["Down"], "source":""},
{"id":"53", "category_id":"LANGUAGE", "lang":"en", "question":"What three letter word means the same as \"to ingest\"", "answer":0, "answers":["Eat"], "source":""},
{"id":"54", "category_id":"LANGUAGE", "lang":"en", "question":"What two words make the word 'meld'?", "answer":0, "answers":["Melt and weld"], "source":""},
{"id":"55", "category_id":"LANGUAGE", "lang":"en", "question":"What was the language of ancient India?", "answer":0, "answers":["Sanskrit"], "source":""},
{"id":"56", "category_id":"LANGUAGE", "lang":"en", "question":"What word contains the combination of letters: \"xop\"?", "answer":0, "answers":["SaXOPhone"], "source":""},
{"id":"57", "category_id":"LANGUAGE", "lang":"en", "question":"Which is the only english word that contains all the vowels in alphabetical order?", "answer":0, "answers":["Facetious"], "source":""},
{"id":"58", "category_id":"LANGUAGE", "lang":"en", "question":"Which two fruits are an anagram of each other?", "answer":0, "answers":["Lemon and melon"], "source":""},
{"id":"59", "category_id":"LANGUAGE", "lang":"en", "question":"Which word means \"profound boredom\" in both french and english?\"", "answer":0, "answers":["Ennui"], "source":""}
 ]
